{
  "project_info": {
    "project_number": "612519736333",
    "firebase_url": "https://androidthesis-62c63.firebaseio.com",
    "project_id": "androidthesis-62c63",
    "storage_bucket": "androidthesis-62c63.appspot.com"
  },
  "client": [
    {
      "client_info": {
        "mobilesdk_app_id": "1:612519736333:android:08564d114bfd8eb8",
        "android_client_info": {
          "package_name": "si.uni_lj.fri.pbd2019.notificationmanager"
        }
      },
      "oauth_client": [
        {
          "client_id": "612519736333-cirbag0qe74qisr6q8ppdfvc26534see.apps.googleusercontent.com",
          "client_type": 1,
          "android_info": {
            "package_name": "si.uni_lj.fri.pbd2019.notificationmanager",
            "certificate_hash": "5eff1a4f873f8d63bbd3a956b8d4c356d8d79cb6"
          }
        },
        {
          "client_id": "612519736333-m929i5437clq3etqv1kvbgckmshnjmh2.apps.googleusercontent.com",
          "client_type": 3
        }
      ],
      "api_key": [
        {
          "current_key": "AIzaSyC3Sv_9Eu_o9SkY6lg5VWSs5TFExtVWbbg"
        }
      ],
      "services": {
        "appinvite_service": {
          "other_platform_oauth_client": [
            {
              "client_id": "612519736333-m929i5437clq3etqv1kvbgckmshnjmh2.apps.googleusercontent.com",
              "client_type": 3
            }
          ]
        }
      }
    }
  ],
  "configuration_version": "1"
}